{
  "inbound": [
    {
      "localPort": 10808,
      "protocol": "socks",
      "udpEnabled": false,
      "sniffingEnabled": false
    }
  ],
  "logEnabled": false,
  "loglevel": "warning",
  "index": 0,
  "vmess": [
    {
      "configVersion": 2,
      "address": "adman03.free3333.xyz",
      "port": 443,
      "id": "919a9c08-5388-8761-efe3-6ea9d48cfe63",
      "alterId": 0,
      "security": "none",
      "network": "ws",
      "remarks": "https://github.com/Alvin9999/new-pac/wiki+ip3莫斯科",
      "headerType": "",
      "requestHost": "adman03.free3333.xyz",
      "path": "/suwtws",
      "streamSecurity": "tls",
      "allowInsecure": "False",
      "configType": 5,
      "testResult": "",
      "subid": "",
      "flow": "",
      "sni": ""
    }
  ],
  "muxEnabled": true,
  "kcpItem": {
    "mtu": 1350,
    "tti": 50,
    "uplinkCapacity": 12,
    "downlinkCapacity": 100,
    "congestion": false,
    "readBufferSize": 2,
    "writeBufferSize": 2
  },
  "sysProxyType": 0,
  "speedTestUrl": "http://speedtest-sgp1.digitalocean.com/10mb.test",
  "speedPingTestUrl": "https://www.google.com/generate_204",
  "allowLANConn": false,
  "enableStatistics": false,
  "keepOlderDedupl": false,
  "statisticsFreshRate": 1000,
  "remoteDNS": "",
  "defAllowInsecure": false,
  "subItem": [],
  "uiItem": {
    "mainSize": "968, 632",
    "mainLvColWidth": {
      "def": 30,
      "configType": 80,
      "remarks": 100,
      "address": 120,
      "port": 50,
      "security": 90,
      "network": 70,
      "subRemarks": 50,
      "testResult": 70
    }
  },
  "domainStrategy": "IPIfNonMatch",
  "routingIndex": 0,
  "routings": [
    {
      "remarks": "绕过大陆(Whitelist)",
      "url": "",
      "rules": [
        {
          "type": null,
          "port": null,
          "inboundTag": null,
          "outboundTag": "direct",
          "ip": null,
          "domain": [
            "domain:example-example.com",
            "domain:example-example2.com"
          ],
          "protocol": null
        },
        {
          "type": null,
          "port": null,
          "inboundTag": null,
          "outboundTag": "block",
          "ip": null,
          "domain": [
            "geosite:category-ads-all"
          ],
          "protocol": null
        },
        {
          "type": null,
          "port": null,
          "inboundTag": null,
          "outboundTag": "direct",
          "ip": null,
          "domain": [
            "geosite:cn"
          ],
          "protocol": null
        },
        {
          "type": null,
          "port": null,
          "inboundTag": null,
          "outboundTag": "direct",
          "ip": [
            "geoip:private",
            "geoip:cn"
          ],
          "domain": null,
          "protocol": null
        },
        {
          "type": null,
          "port": "0-65535",
          "inboundTag": null,
          "outboundTag": "proxy",
          "ip": null,
          "domain": null,
          "protocol": null
        }
      ],
      "enabled": true,
      "locked": false
    },
    {
      "remarks": "locked",
      "url": "",
      "rules": [
        {
          "type": null,
          "port": null,
          "inboundTag": null,
          "outboundTag": "proxy",
          "ip": null,
          "domain": [
            "geosite:google"
          ],
          "protocol": null
        },
        {
          "type": null,
          "port": null,
          "inboundTag": null,
          "outboundTag": "direct",
          "ip": null,
          "domain": [
            "domain:example-example.com",
            "domain:example-example2.com"
          ],
          "protocol": null
        },
        {
          "type": null,
          "port": null,
          "inboundTag": null,
          "outboundTag": "block",
          "ip": null,
          "domain": [
            "geosite:category-ads-all"
          ],
          "protocol": null
        }
      ],
      "enabled": true,
      "locked": true
    }
  ],
  "enableRoutingAdvanced": false,
  "coreType": 0,
  "ignoreGeoUpdateCore": false
}
